[
    {
      "name": "Burger King",
      "description": "This is a notable business.",
      "address": "123 Main St",
      "placeID": "ChIJdVL4hpDYQIYRIxYIZIovLL0"
    },
    {
      "name": "H-E-B",
      "description": "This is another notable business.",
      "address": "123 Main St",
      "placeID": "ChIJTWKz45DYQIYRxvZXmeNAwKA"
    },
    {
      "name": "H-E-B",
      "description": "This is another notable business.",
      "address": "123 Main St",
      "placeID": "ChIJTWKz45DYQIYRxvZXmeNAwKA"
    },
    {
      "name": "H-E-B",
      "description": "This is another notable business.",
      "address": "123 Main St",
      "placeID": "ChIJTWKz45DYQIYRxvZXmeNAwKA"
    }
  ]
